[
  {
    "episode": "1",
    "title": "Geoguessr with Sinvicta - Episode 1 [Patio]",
    "url": "https://viewsync.net/watch?v=lGbKkGKye2s&t=0&v=lpGAgrpRB8E&t=0"
  },
  {
    "episode": "2",
    "title": "Geoguessr with Sinvicta - Episode 2 [Novel]",
    "url": "https://viewsync.net/watch?v=s57wIDHVuyA&t=0&v=_In9UnlpW-E&t=0"
  },
  {
    "episode": "3",
    "title": "Geoguessr with Sinvicta - Episode 3 [National Parks]",
    "url": "https://viewsync.net/watch?v=5n51z5nAOeY&t=0&v=PqxthxPtKug&t=0"
  },
  {
    "episode": "4",
    "title": "Geoguessr with Sinvicta - Episode 4 [Soda]",
    "url": "https://viewsync.net/watch?v=DyCEEfEI9aM&t=0&v=XcfymYHH32g&t=0"
  },
  {
    "episode": "5",
    "title": "Geoguessr with Sinvicta - Episode 5 [Salamanca]",
    "url": "https://viewsync.net/watch?v=iwM6MyoSnf0&t=0&v=FsflwZASqNg&t=0"
  },
  {
    "episode": "6",
    "title": "Geoguessr with Sinvicta - Episode 6 [Linguistics]",
    "url": "https://viewsync.net/watch?v=Th-4SWHpqQY&t=0&v=UeGsGYZB5AI&t=0"
  },
  {
    "episode": "7",
    "title": "Geoguessr with Sinvicta - Episode 7 [Nordic]",
    "url": "https://viewsync.net/watch?v=dsfK8mocr7c&t=0&v=WYctLQ501hA&t=0"
  },
  {
    "episode": "8",
    "title": "Geoguessr with Sinvicta - Episode 8 [Industrial]",
    "url": "https://viewsync.net/watch?v=OFm8tWXxpSY&t=0&v=VsUURz0PQOM&t=0"
  },
  {
    "episode": "9",
    "title": "Geoguessr with Sinvicta - Episode 9 [Emerald]",
    "url": "https://viewsync.net/watch?v=LmCbKBrCoB4&t=0&v=krGweCc_zok&t=0"
  },
  {
    "episode": "10",
    "title": "Geoguessr with Sinvicta - Episode 10 [Uncharted]",
    "url": "https://viewsync.net/watch?v=NUnxFLzbvwo&t=0&v=njjimRycB7U&t=0"
  },
  {
    "episode": "11",
    "title": "Geoguessr with Sinvicta - Episode 11 [Language]",
    "url": "https://viewsync.net/watch?v=6sfPz-5YOm4&t=0&v=bNX8FBPjUBM&t=0"
  },
  {
    "episode": "12",
    "title": "Geoguessr with Sinvicta - Episode 12 [Bonne]",
    "url": "https://viewsync.net/watch?v=6NNCJPHv46g&t=0&v=pvLWb_45RPo&t=0"
  },
  {
    "episode": "13",
    "title": "Geoguessr with Sinvicta - Episode 13 [Returned]",
    "url": "https://viewsync.net/watch?v=o9XwqRu0MNA&t=0&v=olVCacdHVXA&t=0"
  },
  {
    "episode": "14",
    "title": "Geoguessr with Sinvicta - Episode 14 [Information]",
    "url": "https://viewsync.net/watch?v=zGgK_8galLw&t=0&v=1Q8O567teBM&t=0"
  },
  {
    "episode": "15",
    "title": "Geoguessr with Sinvicta - Episode 15 [Hope]",
    "url": "https://viewsync.net/watch?v=CinkMOdEFjA&t=0&v=iJAR0rFS9j0&t=0"
  },
  {
    "episode": "16",
    "title": "Geoguessr with Sinvicta - Episode 16 [Engineering]",
    "url": "https://viewsync.net/watch?v=zVm4_bLfw8E&t=0&v=orA_2VEians&t=0"
  },
  {
    "episode": "17",
    "title": "Geoguessr with Sinvicta - Episode 17 [Remote]",
    "url": "https://viewsync.net/watch?v=CqWNRJd7b5k&t=0&v=XEvz8gNVe6I&t=0"
  },
  {
    "episode": "18",
    "title": "Geoguessr with Sinvicta - Episode 18 [Interest]",
    "url": "https://viewsync.net/watch?v=fRUowiz-li8&t=0&v=iQ9VHKnrNNM&t=0"
  },
  {
    "episode": "19",
    "title": "Geoguessr with Sinvicta - Episode 19 [Confusion]",
    "url": "https://viewsync.net/watch?v=ITBCmy6_UpE&t=0&v=-puvQlFv050&t=0"
  },
  {
    "episode": "20",
    "title": "Geoguessr with Sinvicta - Episode 20 [Pinpoint]",
    "url": "https://viewsync.net/watch?v=0enDUthrr-4&t=0&v=PVS4rtiiwjM&t=0"
  },
  {
    "episode": "21",
    "title": "Geoguessr with Sinvicta - Episode 21 [Bus]",
    "url": "https://viewsync.net/watch?v=7vH5sOAfWiw&t=0&v=51NRq8iCX_0&t=0"
  },
  {
    "episode": "22",
    "title": "Geoguessr with Sinvicta - Episode 22 [Curse]",
    "url": "https://viewsync.net/watch?v=O3hw5nPR3Wc&t=0&v=w_tPK-GbYC0&t=0"
  },
  {
    "episode": "23",
    "title": "Geoguessr with Sinvicta - Episode 23 [Islands]",
    "url": "https://viewsync.net/watch?v=4-GVIxO9Xxw&t=0&v=SDFxfquKDzE&t=0"
  },
  {
    "episode": "24",
    "title": "Geoguessr with Sinvicta - Episode 24 [Signs]",
    "url": "https://viewsync.net/watch?v=QVFhldlK0BE&t=0&v=Ji-mRg9nbDw&t=0"
  },
  {
    "episode": "25",
    "title": "Geoguessr with Sinvicta - Episode 25 [Humor]",
    "url": "https://viewsync.net/watch?v=rZrD3feDnVo&t=0&v=_JtgF5-DxZs&t=0"
  },
  {
    "episode": "26",
    "title": "Geoguessr with Sinvicta - Episode 26 [Choices]",
    "url": "https://viewsync.net/watch?v=jG0JidmdZXc&t=0&v=g0TBAxbcFXo&t=0"
  },
  {
    "episode": "27",
    "title": "Geoguessr with Sinvicta - Episode 27 [Hope]",
    "url": "https://viewsync.net/watch?v=AbB43p4LNjI&t=0&v=A7emEnMj2Sk&t=0"
  },
  {
    "episode": "28",
    "title": "Geoguessr with Sinvicta - Episode 28 [Streaks]",
    "url": "https://viewsync.net/watch?v=Nnh8EQgV8G0&t=0&v=uA3Ln2XNEwY&t=0"
  },
  {
    "episode": "29",
    "title": "Geoguessr with Sinvicta - Episode 29 [Islands]",
    "url": "https://viewsync.net/watch?v=-l_ucw0CLS0&t=0&v=d-lUKXc2eCE&t=0"
  },
  {
    "episode": "30",
    "title": "Geoguessr with Sinvicta - Episode 30 [The Google Bus]",
    "url": "https://viewsync.net/watch?v=wiXg0BUEI28&t=0&v=86sm75-Lw0M&t=0"
  },
  {
    "episode": "31",
    "title": "Geoguessr with Sinvicta - Episode 31 [Decipher]",
    "url": "https://viewsync.net/watch?v=L84h0O7eD7w&t=0&v=jqSjuxIoZrg&t=0"
  },
  {
    "episode": "32",
    "title": "Geoguessr with Sinvicta - Episode 32 [Puzzling]",
    "url": "https://viewsync.net/watch?v=Bv4hczBDYoI&t=0&v=FknP0175bhM&t=0"
  },
  {
    "episode": "33",
    "title": "Geoguessr with Sinvicta - Episode 33 [Tuk]",
    "url": "https://viewsync.net/watch?v=weWf0A9g9c8&t=0&v=h1PzwFa_9JI&t=0"
  },
  {
    "episode": "34",
    "title": "Geoguessr with Sinvicta - Episode 34 [Immaculate]",
    "url": "https://viewsync.net/watch?v=zX3n6Up8rn0&t=0&v=vjKiFb3_OTk&t=0"
  },
  {
    "episode": "35",
    "title": "Geoguessr with Sinvicta - Episode 35 [Olympics]",
    "url": "https://viewsync.net/watch?v=UYQCoN9QBb4&t=0&v=c5-mQt0L1E4&t=0"
  },
  {
    "episode": "36",
    "title": "Geoguessr with Sinvicta - Episode 36 [Destinations]",
    "url": "https://viewsync.net/watch?v=URIanx1HbxI&t=0&v=c_plfojvqbU&t=0"
  },
  {
    "episode": "37",
    "title": "Geoguessr with Sinvicta - Episode 37 [Narrow]",
    "url": "https://viewsync.net/watch?v=hAN93oXFOc0&t=0&v=gp5eKceDJKg&t=0"
  },
  {
    "episode": "38",
    "title": "Geoguessr with Sinvicta - Episode 38 [We're Sorry]",
    "url": "https://viewsync.net/watch?v=e7BcLfPzwBk&t=0&v=esWZSDTWtbU&t=0"
  },
  {
    "episode": "39",
    "title": "Geoguessr with Sinvicta - Episode 39 [Tourists]",
    "url": "https://viewsync.net/watch?v=mMJajyFSCmg&t=0&v=hDBg4pJmmAA&t=0"
  },
  {
    "episode": "40",
    "title": "Geoguessr with Sinvicta - Episode 40 [Brain Fart]",
    "url": "https://viewsync.net/watch?v=TSV1eCed_sw&t=0&v=ThHda9iO-98&t=0"
  },
  {
    "episode": "41",
    "title": "Geoguessr with Sinvicta - Episode 41 [Dialed In]",
    "url": "https://viewsync.net/watch?v=OGqWj9kSrLo&t=0&v=y73_lqY6hSI&t=0"
  },
  {
    "episode": "42",
    "title": "Geoguessr with Sinvicta - Episode 42 [Clawing Back]",
    "url": "https://viewsync.net/watch?v=Dm6tW5x3I_A&t=0&v=OhCmsv7pmWw&t=0"
  },
  {
    "episode": "43",
    "title": "Geoguessr with Sinvicta - Episode 43 [Spiral Staircase]",
    "url": "https://viewsync.net/watch?v=PJBMMwbnYN0&t=0&v=Gu2ENRhDXIg&t=0"
  },
  {
    "episode": "44",
    "title": "Geoguessr with Sinvicta - Episode 44 [Trilingual]",
    "url": "https://viewsync.net/watch?v=FdXCzvEdLvA&t=0&v=ujTR0YLow1k&t=0"
  },
  {
    "episode": "45",
    "title": "Geoguessr with Sinvicta - Episode 45 [Mister Chicken]",
    "url": "https://viewsync.net/watch?v=mpjZC9fOb-U&t=0&v=ossc86dCUxw&t=0"
  },
  {
    "episode": "46",
    "title": "Geoguessr with Sinvicta - Episode 46 [Way Off]",
    "url": "https://viewsync.net/watch?v=hZXhMnm1Q4o&t=0&v=s-Ra6SjOQKs&t=0"
  },
  {
    "episode": "47",
    "title": "Geoguessr with Sinvicta - Episode 47 [Latitudes]",
    "url": "https://viewsync.net/watch?v=YDbbymD6Vb8&t=0&v=Lt9KqfyfF08&t=0"
  },
  {
    "episode": "48",
    "title": "Geoguessr with Sinvicta - Episode 48 [Revisited]",
    "url": "https://viewsync.net/watch?v=bK50Xdz7E9I&t=0&v=WkrU2U5g8cE&t=0"
  },
  {
    "episode": "49",
    "title": "Geoguessr with Sinvicta - Episode 49 [Curses]",
    "url": "https://viewsync.net/watch?v=7y_Z2j-Vq64&t=0&v=Z7wPmkOjd6U&t=0"
  },
  {
    "episode": "50",
    "title": "Geoguessr with Sinvicta - Episode 50 [Momentum]",
    "url": "https://viewsync.net/watch?v=QK7jOZoXrg4&t=0&v=Wywhdl8mIbg&t=0"
  },
  {
    "episode": "51",
    "title": "Geoguessr with Sinvicta - Episode 51 [South Pacific]",
    "url": "https://viewsync.net/watch?v=9DWJcAi3sfI&t=0&v=spVpRSvior0&t=0"
  },
  {
    "episode": "52",
    "title": "Geoguessr with Sinvicta - Episode 52 [The Return]",
    "url": "https://viewsync.net/watch?v=lROqYqyDVHw&t=0&v=0U4P9_ZV2f8&t=0"
  },
  {
    "episode": "53",
    "title": "Geoguessr with Sinvicta - Episode 53 [Domains]",
    "url": "https://viewsync.net/watch?v=kTrbXPnBG_0&t=0&v=f2Q20t5YwOY&t=0"
  },
  {
    "episode": "54",
    "title": "Geoguessr with Sinvicta - Episode 54 [Clockwork]",
    "url": "https://viewsync.net/watch?v=gTv1AH5At28&t=0&v=Kdx1EXoc5eg&t=0"
  },
  {
    "episode": "55",
    "title": "Geoguessr with Sinvicta - Episode 55 [Um]",
    "url": "https://viewsync.net/watch?v=fwYGgxKhZHQ&t=0&v=P37BY4Qvnww&t=0"
  },
  {
    "episode": "56",
    "title": "Geoguessr with Sinvicta - Episode 56 [The Turbo Dab]",
    "url": "https://viewsync.net/watch?v=TcEs_CoJUcw&t=0&v=7jMxxfuhao0&t=0"
  },
  {
    "episode": "57",
    "title": "Geoguessr with Sinvicta - Episode 57 [Prevention]",
    "url": "https://viewsync.net/watch?v=8IA1frs18OY&t=0&v=WTV7dY8gZ6o&t=0"
  },
  {
    "episode": "58",
    "title": "Geoguessr with Sinvicta - Episode 58 [Clean]",
    "url": "https://viewsync.net/watch?v=7wZ6PFWdO0M&t=0&v=98vTitFhMw4&t=0"
  },
  {
    "episode": "59",
    "title": "Geoguessr with Sinvicta - Episode 59 [Uh Oh]",
    "url": "https://viewsync.net/watch?v=ganyhgATXpI&t=0&v=5rHaxhZeyKM&t=0"
  },
  {
    "episode": "60",
    "title": "Geoguessr with Sinvicta - Episode 60 [Asterisk]",
    "url": "https://viewsync.net/watch?v=391lXPx-HOM&t=0&v=lWNte0ixVPQ&t=0"
  },
  {
    "episode": "61",
    "title": "Geoguessr with Sinvicta - Episode 61 [Confidence]",
    "url": "https://viewsync.net/watch?v=MHdRX-83Y4o&t=0&v=2g1yucgQ46A&t=0"
  },
  {
    "episode": "62",
    "title": "Geoguessr with Sinvicta - Episode 62 [Steam]",
    "url": "https://viewsync.net/watch?v=0M2PhE4hOY4&t=0&v=rOS_ibWPsjc&t=0"
  },
  {
    "episode": "63",
    "title": "Geoguessr with Sinvicta - Episode 63 [Balanced]",
    "url": "https://viewsync.net/watch?v=Zdg5xKajsxo&t=0&v=r6LJznz5Ylk&t=0"
  },
  {
    "episode": "64",
    "title": "Geoguessr with Sinvicta - Episode 64 [Combing]",
    "url": "https://viewsync.net/watch?v=iQ1jX6-HGpY&t=0&v=SY4avrS-t8Q&t=0"
  },
  {
    "episode": "65",
    "title": "Geoguessr with Sinvicta - Episode 65 (Horizon)",
    "url": "https://viewsync.net/watch?v=lwNqqjywt2k&t=0&v=TMxRLYwWb-Q&t=0"
  },
  {
    "episode": "66",
    "title": "Geoguessr with Sinvicta - Episode 66 [Rubber]",
    "url": "https://viewsync.net/watch?v=1hBk7vwMtr4&t=0&v=gSnVMfrO1Vc&t=0"
  },
  {
    "episode": "67",
    "title": "Geoguessr with Sinvicta - Episode 67 [Ranges]",
    "url": "https://viewsync.net/watch?v=RBvEQIWh3cg&t=0&v=rGrImTYQH_Q&t=0"
  },
  {
    "episode": "68",
    "title": "Geoguessr with Sinvicta - Episode 68 [Revelations]",
    "url": "https://viewsync.net/watch?v=qKI5RVEwNs0&t=0&v=uD9IlG5vKMM&t=0"
  },
  {
    "episode": "70",
    "title": "Geoguessr with Sinvicta - Episode 70 [Clean Slate]",
    "url": "https://viewsync.net/watch?v=YTKQ3-36gdE&t=0&v=1wcbBlLecSc&t=0"
  },
  {
    "episode": "71",
    "title": "Geoguessr with Sinvicta - Episode 71 [The Odds]",
    "url": "https://viewsync.net/watch?v=Mzi1tc-6S80&t=0&v=zjLNyswoMro&t=0"
  },
  {
    "episode": "72",
    "title": "Geoguessr with Sinvicta - Episode 72 [Tiebreaker]",
    "url": "https://viewsync.net/watch?v=2Hi97Uow3Vg&t=0&v=vI6QFdaE2s4&t=0"
  },
  {
    "episode": "73",
    "title": "Geoguessr with Sinvicta - Episode 73 [Hello Again]",
    "url": "https://viewsync.net/watch?v=WAmnJ8COTBc&t=0&v=jMQmA8NMeaw&t=0"
  },
  {
    "episode": "74",
    "title": "Geoguessr with Sinvicta - Episode 74 [Been There]",
    "url": "https://viewsync.net/watch?v=cYCl2CbrUfI&t=0&v=z7oVVbb7Cxw&t=0"
  },
  {
    "episode": "75",
    "title": "Geoguessr with Sinvicta - Episode 75 [TGIF]",
    "url": "https://viewsync.net/watch?v=dotjzsSPTP4&t=0&v=5do4uRPyRcw&t=0"
  },
  {
    "episode": "76",
    "title": "Geoguessr with Sinvicta - Episode 76 [Misunderstandings]",
    "url": "https://viewsync.net/watch?v=4SUB7Ec_YuQ&t=0&v=u8naJ2vqzH8&t=0"
  },
  {
    "episode": "77",
    "title": "Geoguessr with Sinvicta - Episode 77 [Coincidence]",
    "url": "https://viewsync.net/watch?v=JR-1KkIGRkI&t=0&v=nB0tJ3j5yO4&t=0"
  },
  {
    "episode": "78",
    "title": "Geoguessr with Sinvicta - Episode 78 [Big Plus]",
    "url": "https://viewsync.net/watch?v=lc1B7-o7KK0&t=0&v=NkcUUJqF35A&t=0"
  },
  {
    "episode": "79",
    "title": "Geoguessr with Sinvicta - Episode 79 [Mysteries]",
    "url": "https://viewsync.net/watch?v=3L4UDlVXHrI&t=0&v=46uQ32VZI_E&t=0"
  },
  {
    "episode": "80",
    "title": "Geoguessr with Sinvicta - Episode 80 [Radar]",
    "url": "https://viewsync.net/watch?v=PPvumc7MIKE&t=0&v=d_np86TKeh8&t=0"
  },
  {
    "episode": "81",
    "title": "Geoguessr with Sinvicta - Episode 81 [Resolutions]",
    "url": "https://viewsync.net/watch?v=MnvDrmRwEWM&t=0&v=3669lYpZEEM&t=0"
  },
  {
    "episode": "82",
    "title": "Geoguessr with Sinvicta - Episode 82 [Vengeance]",
    "url": "https://viewsync.net/watch?v=7TOdIRm83b4&t=0&v=yDxOF8bmI40&t=0"
  },
  {
    "episode": "83",
    "title": "Geoguessr with Sinvicta - Episode 83 [Anthem]",
    "url": "https://viewsync.net/watch?v=yI90tYjDRPA&t=0&v=XlEPXfE4Mpk&t=0"
  },
  {
    "episode": "84",
    "title": "Geoguessr with Sinvicta - Episode 84 [False]",
    "url": "https://viewsync.net/watch?v=AD41s4u6AAs&t=0&v=05McKlNktRM&t=0"
  },
  {
    "episode": "85",
    "title": "Geoguessr with Sinvicta - Episode 85 [Aggregate]",
    "url": "https://viewsync.net/watch?v=kAJsURtyWiA&t=0&v=0OLA8C55PrU&t=0"
  },
  {
    "episode": "86",
    "title": "Geoguessr with Sinvicta - Episode 86 [Culinary]",
    "url": "https://viewsync.net/watch?v=crF8pO5tLaM&t=0&v=hqoTRhYpK48&t=0"
  },
  {
    "episode": "87",
    "title": "Geoguessr with Sinvicta - Episode 87 [Remote]",
    "url": "https://viewsync.net/watch?v=lPsV2IjS7q0&t=0&v=ONaR4g_uTZ8&t=0"
  },
  {
    "episode": "88",
    "title": "Geoguessr with Sinvicta - Episode 88 [Felines]",
    "url": "https://viewsync.net/watch?v=U4Nbb4HAR9c&t=0&v=h1u6n43bdi0&t=0"
  },
  {
    "episode": "89",
    "title": "Geoguessr with Sinvicta - Episode 89 [Perspective]",
    "url": "https://viewsync.net/watch?v=I4aY_tAGrZE&t=0&v=kY7KEnQ2GqE&t=0"
  },
  {
    "episode": "90",
    "title": "Geoguessr with Sinvicta - Episode 90 [Roads]",
    "url": "https://viewsync.net/watch?v=Qxdd-OFGmYM&t=0&v=noz8KPD2-oI&t=0"
  },
  {
    "episode": "91",
    "title": "Geoguessr with Sinvicta - Episode 91 [What A Name]",
    "url": "https://viewsync.net/watch?v=o4jY3Ye9_Pw&t=0&v=7NReEt5FcgE&t=0"
  },
  {
    "episode": "92",
    "title": "Geoguessr with Sinvicta - Episode 92 [Halted]",
    "url": "https://viewsync.net/watch?v=4tz1jwVMusA&t=0&v=3FnsmYocx5I&t=0"
  }
]
