[
  {
    "episode": "1",
    "title": "Isn't She A Doll - Pacify [1/4]",
    "url": "https://viewsync.net/watch?v=S6g1KwGFrIU&t=0&v=Hil3fexXUAE&t=0&v=OTeq_LTz0AE&t=0"
  },
  {
    "episode": "2",
    "title": "Now They're Getting It - Pacify [2/4]",
    "url": "https://viewsync.net/watch?v=QGKuTfYwc6s&t=0&v=9B-8RjK0fps&t=0&v=6tw_x3SQhvk&t=0"
  },
  {
    "episode": "3",
    "title": "A Strategy Forms - Pacify [3/4]",
    "url": "https://viewsync.net/watch?v=ozxpWzaeQgE&t=0&v=nbFp8EIYtCQ&t=0&v=QIoXghl60dk&t=0"
  },
  {
    "episode": "4",
    "title": "Don't Worry...She Can't Get Out - Pacify [4/4]",
    "url": "https://viewsync.net/watch?v=P5v0Pg_Bu7Y&t=0&v=5rGk7kTx8fM&t=0&v=pZX2FfnpWpk&t=0"
  }
]
