[
  {
    "episode": "1",
    "title": "Police Stories - Co-op With Northernlion and DanGheesling [1/?]",
    "url": "https://viewsync.net/watch?v=3oSXkn2JIyI&t=0&v=EhEEy_nVBUI&t=0"
  },
  {
    "episode": "2",
    "title": "Police Stories with DanGheesling - Tactical Overload [2/?]",
    "url": "https://viewsync.net/watch?v=s8lgFXGlHQs&t=0&v=_r_ACjfCyjQ&t=0"
  },
  {
    "episode": "3",
    "title": "Police Stories with DanGheesling - He Holds It Sideways [3/?]",
    "url": "https://viewsync.net/watch?v=0Tj7O9ue8js&t=0&v=Y78g7PmheqE&t=0"
  },
  {
    "episode": "4",
    "title": "Police Stories with DanGheesling - Disarming Protocol [4/?]",
    "url": "https://viewsync.net/watch?v=tgjZIWYk8l8&t=0&v=XVBG9AFWzGE&t=0"
  },
  {
    "episode": "5",
    "title": "Police Stories with DanGheesling - Training Wheels [5/?]",
    "url": "https://viewsync.net/watch?v=CBxl9rw39QU&t=0&v=qkz21TS0Nn0&t=0"
  },
  {
    "episode": "6",
    "title": "Police Stories with DanGheesling - Concerted Efforts [6/?]",
    "url": "https://viewsync.net/watch?v=kMqfgcfMO1Y&t=0&v=vPJANUZPHQE&t=0"
  },
  {
    "episode": "7",
    "title": "Police Stories with DanGheesling - Lieutenant Daniel [7/?]",
    "url": "https://viewsync.net/watch?v=IYSU2pP8uN4&t=0&v=Hyd1nVaEKGU&t=0"
  },
  {
    "episode": "8",
    "title": "Police Stories with DanGheesling - Pick A Number [8/?]",
    "url": "https://viewsync.net/watch?v=HdJqQZt-3IU&t=0&v=BnPqjilEHOU&t=0"
  },
  {
    "episode": "9",
    "title": "Police Stories with DanGheesling - Prison Architect [9/?]",
    "url": "https://viewsync.net/watch?v=MLpEau8WriI&t=0&v=yp-0L57thrI&t=0"
  },
  {
    "episode": "10",
    "title": "Police Stories with DanGheesling - We Can't Be Stopped [10/?]",
    "url": "https://viewsync.net/watch?v=Iv16Vofcbaw&t=0&v=aJGD4fhha0E&t=0"
  },
  {
    "episode": "11",
    "title": "Police Stories with DanGheesling - Commissioner Dan [11/?]",
    "url": "https://viewsync.net/watch?v=5Ir0qg0z2d0&t=0&v=OmtWPdAt71s&t=0"
  },
  {
    "episode": "12",
    "title": "Police Stories with DanGheesling - Spin Cycle [12/?]",
    "url": "https://viewsync.net/watch?v=w31FBakDs00&t=0&v=hgMemcXj-BE&t=0"
  },
  {
    "episode": "13",
    "title": "Police Stories with DanGheesling - Could It Be? [13/?]",
    "url": "https://viewsync.net/watch?v=rSUqWA-NnEE&t=0&v=2rCNqUce28Y&t=0"
  }
]
